{
  "main_menu": [
    {
      "id": 0,
      "title": "About Me",
      "url": "",
      "status": "",
      "icon": "icon-user",
      "sub_menu": [
        {
          "id": 1,
          "title": "Short Bio",
          "action": "scrollto",
          "target": "section-short-bio",
          "status": "active"
        },
        {
          "id": 2,
          "title": "Skills",
          "action": "scrollto",
          "target": "section-skills",
          "status": ""
        },
        {
          "id": 3,
          "title": "Experience",
          "action": "scrollto",
          "target": "section-experience",
          "status": ""
        },
        {
          "id": 4,
          "title": "Programs",
          "action": "scrollto",
          "target": "section-programs",
          "status": ""
        },
        {
          "id": 5,
          "title": "Education",
          "action": "scrollto",
          "target": "section-education",
          "status": ""
        }
      ]
    },
    {
      "id": 6,
      "title": "Creative Process",
      "url": "creative-process",
      "status": "active",
      "icon": "icon-activity",
      "sub_menu": [
        {
          "id": 7,
          "title": "1). Insights",
          "action": "scrollto",
          "target": "section-insights",
          "status": "active"
        },
        {
          "id": 8,
          "title": "2). Design Thinking",
          "action": "scrollto",
          "target": "section-design-thinking",
          "status": ""
        },
        {
          "id": 9,
          "title": "3). Scrum",
          "action": "scrollto",
          "target": "section-scrum",
          "status": ""
        },
        {
          "id": 10,
          "title": "4). Testing",
          "action": "scrollto",
          "target": "section-testing",
          "status": ""
        },
        {
          "id": 11,
          "title": "5). Research",
          "action": "scrollto",
          "target": "section-research",
          "status": ""
        },
        {
          "id": 12,
          "title": "6). Inbound Marketing",
          "action": "scrollto",
          "target": "section-inbound-marketing",
          "status": ""
        },
        {
          "id": 13,
          "title": "7). Analytics",
          "action": "scrollto",
          "target": "section-analytics",
          "status": ""
        },
        {
          "id": 14,
          "title": "8). Optimization",
          "action": "scrollto",
          "target": "section-optimization",
          "status": ""
        },
        {
          "id": 15,
          "title": "9). Leads & CRM",
          "action": "scrollto",
          "target": "section-leads-and-crm",
          "status": ""
        },
        {
          "id": 16,
          "title": "10). Lift Off",
          "action": "scrollto",
          "target": "section-lift-off",
          "status": ""
        }
      ]
    },
    {
      "id": 17,
      "title": "Case Studies",
      "url": "case-studies",
      "status": "",
      "icon": "icon-award",
      "sub_menu": [
        {
          "id": 18,
          "title": "Case Study 1",
          "action": "push",
          "target": "case-study-1",
          "status": "active"
        },
        {
          "id": 19,
          "title": "Case Study 2",
          "action": "push",
          "target": "case-study-2",
          "status": ""
        },
        {
          "id": 20,
          "title": "Case Study 3",
          "action": "push",
          "target": "case-study-3",
          "status": ""
        }
      ]
    },
    {
      "id": 21,
      "title": "Blog",
      "url": "blog",
      "status": "",
      "icon": "icon-bookmark",
      "sub_menu": [
        {
          "id": 22,
          "title": "Category 1",
          "action": "push",
          "target": "category-1",
          "status": "active"
        },
        {
          "id": 23,
          "title": "Category 2",
          "action": "push",
          "target": "category-2",
          "status": ""
        },
        {
          "id": 24,
          "title": "Category 3",
          "action": "push",
          "target": "category-3",
          "status": ""
        }
      ]
    },
    {
      "id": 25,
      "title": "Contact",
      "url": "contact",
      "status": "",
      "icon": "icon-message-square",
      "sub_menu": []
    }
  ],
  "contact_small_modal":
    {
      "status": "",
      "links":  [
      {
        "title": "Important Stuff",
        "links": [
          { "link_title": "Resume", "url": "#" }
        ]
      },
      {
        "title": "Email",
        "links": [
          { "link_title": "hola@jpcasabianca.com", "url": "mailto:hola@jpcasabianca.com" }
        ]
      },
      {
        "title": "Phone",
        "links": [
          { "link_title": "+(57) 350-701-5800", "url": "tel:+573507015800" }
        ]
      },
      {
        "title": "Find me on",
        "links": [
          { "link_title": "Linkedin", "url": "#" },
          { "link_title": "Medium", "url": "#" }
        ]
      }
    ]
  }
}
